ELock/ELock.sim/sim_1/behav/xsim/test0.vcd
$date
   Sun May 26 17:35:35 2019
$end
$version
  2018.3
$end
$timescale
  1ps
$end
$scope module test0 $end
$var reg 1 ! rst $end
$var reg 1 " add1 $end
$var reg 1 # sub1 $end
$var reg 1 $ digCnf $end
$var reg 1 % pasBtn $end
$var reg 1 & setLok $end
$var wire 8 ' cntDn [7:0] $end
$var wire 4 ( blue [3:0] $end
$var wire 4 ) green [3:0] $end
$var wire 4 * red [3:0] $end
$var wire 4 + an0 [3:0] $end
$var wire 4 , an1 [3:0] $end
$var wire 8 - pipe0 [7:0] $end
$var wire 8 . pipe1 [7:0] $end
$var wire 1 / enEnter $end
$var wire 1 0 lockState $end
$var wire 1 1 inpFin $end
$var wire 32 2 pw [31:0] $end
$var wire 3 3 pw_num [2:0] $end
$var wire 4 4 id0 [3:0] $end
$var wire 4 5 id1 [3:0] $end
$var wire 1 6 clk $end
$var reg 1 7 op $end
$scope module u0 $end
$var wire 1 8 rst $end
$var wire 1 9 add1 $end
$var wire 1 : sub1 $end
$var wire 1 ; digCnf $end
$var wire 1 < pasBtn $end
$var wire 1 = setLok $end
$var wire 8 ' cntDn [7:0] $end
$var wire 4 * red [3:0] $end
$var wire 4 + an0 [3:0] $end
$var wire 4 , an1 [3:0] $end
$var wire 8 - pipe0 [7:0] $end
$var wire 8 . pipe1 [7:0] $end
$var reg 1 > clk $end
$var wire 32 ? pw [31:0] $end
$var wire 4 @ pw_num [3:0] $end
$var wire 1 1 inpFin $end
$var reg 32 A lc [31:0] $end
$var reg 4 B lc_num [3:0] $end
$var reg 1 C inputScen $end
$var reg 1 D lockState $end
$var reg 1 E enEnter $end
$var reg 1 F enAlarm $end
$var reg 1 G inpFin_d $end
$var reg 1 H pasBtn_d $end
$var reg 1 I setLok_d $end
$scope module enter $end
$var reg 21 J extinguishCnt [20:0] $end
$var wire 1 > clk $end
$var wire 1 9 add1 $end
$var wire 1 : sub1 $end
$var wire 1 ; digCnf $end
$var wire 1 < pasBtn $end
$var wire 1 E enEnter $end
$var wire 1 K inputScen $end
$var wire 1 D lockState $end
$var reg 4 L num [3:0] $end
$var reg 4 M cur [3:0] $end
$var reg 3 N rest [2:0] $end
$var reg 32 O pw [31:0] $end
$var reg 8 P cntDn [7:0] $end
$var reg 1 Q inpFin $end
$var reg 1 R enEnter_d $end
$var reg 1 S digCnf_d $end
$var reg 1 T add1_d $end
$var reg 1 U sub1_d $end
$var reg 1 V pasBtn_d $end
$upscope $end
$scope module sLight $end
$var reg 17 W twinkleCnt [16:0] $end
$var wire 1 > clk $end
$var wire 1 E enEnter $end
$var wire 1 X enAlarm $end
$var wire 1 D lockState $end
$var reg 4 Y red [3:0] $end
$upscope $end
$scope module display $end
$var reg 11 Z refreshCnt [10:0] $end
$var wire 1 > clk $end
$var wire 1 E enEnter $end
$var wire 32 ? pw [31:0] $end
$var wire 4 @ num [3:0] $end
$var wire 4 + an0 [3:0] $end
$var wire 4 , an1 [3:0] $end
$var reg 4 [ id0 [3:0] $end
$var reg 4 \ id1 [3:0] $end
$var wire 16 ] pw0 [15:0] $end
$var wire 16 ^ pw1 [15:0] $end
$var wire 4 _ dig0 [3:0] $end
$var wire 4 ` dig1 [3:0] $end
$var reg 2 a cur [1:0] $end
$var wire 8 - pipe0 [7:0] $end
$var wire 8 . pipe1 [7:0] $end
$var wire 1 b needTwink0 $end
$var wire 1 c needTwink1 $end
$scope module single0 $end
$var reg 19 d digitTwinkCnt [18:0] $end
$var wire 1 > clk $end
$var wire 1 E enEnter $end
$var wire 1 b needTwink $end
$var wire 4 e id [3:0] $end
$var reg 8 f pipe [7:0] $end
$var wire 4 g cid [3:0] $end
$var parameter 32 h digitTwinkCntRange [31:0] $end
$upscope $end
$scope module single1 $end
$var reg 19 i digitTwinkCnt [18:0] $end
$var wire 1 > clk $end
$var wire 1 E enEnter $end
$var wire 1 c needTwink $end
$var wire 4 j id [3:0] $end
$var reg 8 k pipe [7:0] $end
$var wire 4 l cid [3:0] $end
$var parameter 32 m digitTwinkCntRange [31:0] $end
$upscope $end
$upscope $end
$upscope $end
$upscope $end
$enddefinitions $end
#0
$dumpvars
0!
0"
0#
0$
0%
0&
b11111111 '
bz (
bz )
b0 *
b1 +
b1 ,
b0 -
b0 .
0/
10
01
bz 2
bz 3
bz 4
bz 5
06
07
08
09
0:
0;
0<
0=
0>
b0 ?
b1 @
b0 A
b100 B
0C
1D
0E
0F
0G
0H
0I
b1 J
0K
b1 L
b0 M
b111 N
b0 O
b11111111 P
0Q
0R
0S
0T
0U
0V
b1 W
0X
b0 Y
b1 Z
b1111 [
b1111 \
b0 ]
b0 ^
b0 _
b0 `
b0 a
0b
0c
b0 d
b1111 e
b0 f
b1111 g
b10010 h
b0 i
b1111 j
b0 k
b1111 l
b10010 m
$end
#1000
b10011001 '
b1111 *
16
1>
b10 J
b10011001 P
b10 W
b1111 Y
b10 Z
b1011 [
b1100 \
b1 d
b1011 e
b1011 g
b1 i
b1100 j
b1100 l
#2000
06
0>
#3000
b1000000 -
b1111001 .
16
1>
b11 J
b11 W
b11 Z
b10 d
b1000000 f
b10 i
b1111001 k
#4000
06
0>
#5000
16
1>
b100 J
b100 W
b100 Z
b11 d
b11 i
#6000
06
0>
#7000
16
1>
b101 J
b101 W
b101 Z
b100 d
b100 i
#8000
06
0>
#9000
16
1>
b110 J
b110 W
b110 Z
b101 d
b101 i
#10000
1%
06
1<
0>
#11000
1/
16
1>
1E
1H
b111 J
1V
b111 W
b111 Z
1b
b110 d
b0 g
b110 i
b0 l
#12000
06
0>
#13000
b11111111 '
b111111 -
b111111 .
16
1>
b0 J
b11111111 P
1R
b1000 W
b1000 Z
b0 [
b1010 \
b111 d
b0 e
b111111 f
b111 i
b1010 j
b111111 k
#14000
06
0>
#15000
b1111111 '
16
1>
b1 J
b110 N
b1111111 P
b1001 W
b1001 Z
b1000 d
b1000 i
#16000
06
0>
#17000
16
1>
b10 J
b1010 W
b1010 Z
b1001 d
b1001 i
#18000
06
0>
#19000
16
1>
b11 J
b1011 W
b1011 Z
b1010 d
b1010 i
#20000
1$
06
1;
0>
#21000
16
1>
b10 @
b100 J
b10 L
1S
b1100 W
b1100 Z
0b
b1011 d
b1011 i
#22000
06
0>
#23000
16
1>
b101 J
b1101 W
b1101 Z
b1100 d
b1100 i
#24000
06
0>
#25000
16
1>
b110 J
b1110 W
b1110 Z
b1101 d
b1101 i
#26000
06
0>
#27000
16
1>
b111 J
b1111 W
b1111 Z
b1110 d
b1110 i
#28000
06
0>
#29000
16
1>
b1000 J
b10000 W
b10000 Z
b1111 d
b1111 i
#30000
0$
06
0;
0>
#31000
16
1>
b1001 J
0S
b10001 W
b10001 Z
b10000 d
b10000 i
#32000
06
0>
#33000
16
1>
b1010 J
b10010 W
b10010 Z
b10001 d
b10001 i
#34000
06
0>
#35000
16
1>
b1011 J
b10011 W
b10011 Z
b10010 d
b10010 i
#36000
06
0>
#37000
16
1>
b1100 J
b10100 W
b10100 Z
b10011 d
b10011 i
#38000
06
0>
#39000
16
1>
b1101 J
b10101 W
b10101 Z
b10100 d
b10100 i
#40000
1$
06
1;
0>
#41000
16
1>
b11 @
b1110 J
b11 L
1S
b10110 W
b10110 Z
b10101 d
b10101 i
#42000
06
0>
#43000
16
1>
b1111 J
b10111 W
b10111 Z
b10110 d
b10110 i
#44000
06
0>
#45000
16
1>
b10000 J
b11000 W
b11000 Z
b10111 d
b10111 i
#46000
06
0>
#47000
16
1>
b10001 J
b11001 W
b11001 Z
b11000 d
b11000 i
#48000
06
0>
#49000
16
1>
b10010 J
b11010 W
b11010 Z
b11001 d
b11001 i
#50000
0$
06
0;
0>
#51000
16
1>
b10011 J
0S
b11011 W
b11011 Z
b11010 d
b11010 i
#52000
06
0>
#53000
16
1>
b10100 J
b11100 W
b11100 Z
b11011 d
b11011 i
#54000
06
0>
#55000
16
1>
b10101 J
b11101 W
b11101 Z
b11100 d
b11100 i
#56000
06
0>
#57000
16
1>
b10110 J
b11110 W
b11110 Z
b11101 d
b11101 i
#58000
06
0>
#59000
16
1>
b10111 J
b11111 W
b11111 Z
b11110 d
b11110 i
#60000
1$
06
1;
0>
#61000
16
1>
b100 @
b11000 J
b100 L
1S
b100000 W
b100000 Z
b11111 d
b11111 i
#62000
06
0>
#63000
16
1>
b11001 J
b100001 W
b100001 Z
b100000 d
b100000 i
#64000
06
0>
#65000
16
1>
b11010 J
b100010 W
b100010 Z
b100001 d
b100001 i
#66000
06
0>
#67000
16
1>
b11011 J
b100011 W
b100011 Z
b100010 d
b100010 i
#68000
06
0>
#69000
16
1>
b11100 J
b100100 W
b100100 Z
b100011 d
b100011 i
#70000
0$
06
0;
0>
#71000
16
1>
b11101 J
0S
b100101 W
b100101 Z
b100100 d
b100100 i
#72000
06
0>
#73000
16
1>
b11110 J
b100110 W
b100110 Z
b100101 d
b100101 i
#74000
06
0>
#75000
16
1>
b11111 J
b100111 W
b100111 Z
b100110 d
b100110 i
#76000
06
0>
#77000
16
1>
b100000 J
b101000 W
b101000 Z
b100111 d
b100111 i
#78000
06
0>
#79000
16
1>
b100001 J
b101001 W
b101001 Z
b101000 d
b101000 i
#80000
1$
06
1;
0>
#81000
16
1>
b101 @
b100010 J
b101 L
1S
b101010 W
b101010 Z
1c
b101001 d
b101001 i
#82000
06
0>
#83000
16
1>
b100011 J
b101011 W
b101011 Z
b0 \
b101010 d
b101010 i
b0 j
#84000
06
0>
#85000
16
1>
b100100 J
b101100 W
b101100 Z
b101011 d
b101011 i
#86000
06
0>
#87000
16
1>
b100101 J
b101101 W
b101101 Z
b101100 d
b101100 i
#88000
06
0>
#89000
16
1>
b100110 J
b101110 W
b101110 Z
b101101 d
b101101 i
#90000
0$
06
0;
0>
#91000
16
1>
b100111 J
0S
b101111 W
b101111 Z
b101110 d
b101110 i
#92000
06
0>
#93000
16
1>
b101000 J
b110000 W
b110000 Z
b101111 d
b101111 i
#94000
06
0>
#95000
16
1>
b101001 J
b110001 W
b110001 Z
b110000 d
b110000 i
#96000
06
0>
#97000
16
1>
b101010 J
b110010 W
b110010 Z
b110001 d
b110001 i
#98000
06
0>
#99000
16
1>
b101011 J
b110011 W
b110011 Z
b110010 d
b110010 i
#100000
0%
06
0<
0>
#101000
11
16
1>
b100 @
0H
b101100 J
b100 L
1Q
0V
b110100 W
b110100 Z
0c
b110011 d
b110011 i
#102000
06
0>
#103000
0/
00
16
1>
0D
0E
1G
b101101 J
b110101 W
b110101 Z
b1010 \
b110100 d
b110100 i
b1010 j
b1010 l
#104000
06
0>
#105000
b11111111 '
b0 *
b1000 .
16
1>
b101110 J
b11111111 P
0R
b110110 W
b0 Y
b110110 Z
b1011 [
b1100 \
b110101 d
b1011 e
b1011 g
b110101 i
b1100 j
b1000 k
b1100 l
#106000
06
0>
#107000
b1000000 -
b1111001 .
16
1>
b101111 J
b110111 W
b110111 Z
b110110 d
b1000000 f
b110110 i
b1111001 k
#108000
06
0>
#109000
16
1>
b110000 J
b111000 W
b111000 Z
b110111 d
b110111 i
#110000
06
0>
#111000
16
1>
b110001 J
b111001 W
b111001 Z
b111000 d
b111000 i
#112000
06
0>
#113000
16
1>
b110010 J
b111010 W
b111010 Z
b111001 d
b111001 i
#114000
06
0>
#115000
1%
1/
16
1<
1>
1C
1E
1H
b110011 J
1K
1V
b111011 W
b111011 Z
b111010 d
b0 g
b111010 i
b0 l
#116000
06
0>
#117000
b111111 -
b111111 .
01
16
1>
b1 @
b0 J
b1 L
b111 N
0Q
1R
b111100 W
b111100 Z
b0 [
b1010 \
1b
b111011 d
b0 e
b111111 f
b111011 i
b1010 j
b111111 k
#118000
06
0>
#119000
16
1>
0G
b1 J
b111101 W
b111101 Z
b111100 d
b111100 i
#120000
1"
06
19
0>
#121000
16
1>
b1 ?
b10 J
b1 M
b1 O
1T
b111110 W
b111110 Z
b1 ]
b1 _
b111101 d
b111101 i
#122000
06
0>
#123000
16
1>
b11 J
b111111 W
b111111 Z
b1 [
b111110 d
b1 e
b1 g
b111110 i
#124000
06
0>
#125000
0"
b110 -
16
09
1>
b100 J
0T
b1000000 W
b1000000 Z
b111111 d
b110 f
b111111 i
#126000
06
0>
#127000
16
1>
b101 J
b1000001 W
b1000001 Z
b1000000 d
b1000000 i
#128000
06
0>
#129000
16
1>
b110 J
b1000010 W
b1000010 Z
b1000001 d
b1000001 i
#130000
1"
06
19
0>
#131000
16
1>
b10 ?
b111 J
b10 M
b10 O
1T
b1000011 W
b1000011 Z
b10 ]
b10 _
b1000010 d
b1000010 i
#132000
06
0>
#133000
16
1>
b1000 J
b1000100 W
b1000100 Z
b10 [
b1000011 d
b10 e
b10 g
b1000011 i
#134000
06
0>
#135000
0"
b1011011 -
16
09
1>
b1001 J
0T
b1000101 W
b1000101 Z
b1000100 d
b1011011 f
b1000100 i
#136000
06
0>
#137000
16
1>
b1010 J
b1000110 W
b1000110 Z
b1000101 d
b1000101 i
#138000
06
0>
#139000
16
1>
b1011 J
b1000111 W
b1000111 Z
b1000110 d
b1000110 i
#140000
1"
06
19
0>
#141000
16
1>
b11 ?
b1100 J
b11 M
b11 O
1T
b1001000 W
b1001000 Z
b11 ]
b11 _
b1000111 d
b1000111 i
#142000
06
0>
#143000
16
1>
b1101 J
b1001001 W
b1001001 Z
b11 [
b1001000 d
b11 e
b11 g
b1001000 i
#144000
06
0>
#145000
0"
b1001111 -
16
09
1>
b1110 J
0T
b1001010 W
b1001010 Z
b1001001 d
b1001111 f
b1001001 i
#146000
06
0>
#147000
16
1>
b1111 J
b1001011 W
b1001011 Z
b1001010 d
b1001010 i
#148000
06
0>
#149000
16
1>
b10000 J
b1001100 W
b1001100 Z
b1001011 d
b1001011 i
#150000
1"
06
19
0>
#151000
16
1>
b100 ?
b10001 J
b100 M
b100 O
1T
b1001101 W
b1001101 Z
b100 ]
b100 _
b1001100 d
b1001100 i
#152000
06
0>
#153000
16
1>
b10010 J
b1001110 W
b1001110 Z
b100 [
b1001101 d
b100 e
b100 g
b1001101 i
#154000
06
0>
#155000
0"
b1100110 -
16
09
1>
b10011 J
0T
b1001111 W
b1001111 Z
b1001110 d
b1100110 f
b1001110 i
#156000
06
0>
#157000
16
1>
b10100 J
b1010000 W
b1010000 Z
b1001111 d
b1001111 i
#158000
06
0>
#159000
16
1>
b10101 J
b1010001 W
b1010001 Z
b1010000 d
b1010000 i
#160000
1"
06
19
0>
#161000
16
1>
b101 ?
b10110 J
b101 M
b101 O
1T
b1010010 W
b1010010 Z
b101 ]
b101 _
b1010001 d
b1010001 i
#162000
06
0>
#163000
16
1>
b10111 J
b1010011 W
b1010011 Z
b101 [
b1010010 d
b101 e
b101 g
b1010010 i
#164000
06
0>
#165000
0"
b1101101 -
16
09
1>
b11000 J
0T
b1010100 W
b1010100 Z
b1010011 d
b1101101 f
b1010011 i
#166000
06
0>
#167000
16
1>
b11001 J
b1010101 W
b1010101 Z
b1010100 d
b1010100 i
#168000
06
0>
#169000
16
1>
b11010 J
b1010110 W
b1010110 Z
b1010101 d
b1010101 i
#170000
1"
06
19
0>
#171000
16
1>
b110 ?
b11011 J
b110 M
b110 O
1T
b1010111 W
b1010111 Z
b110 ]
b110 _
b1010110 d
b1010110 i
#172000
06
0>
#173000
16
1>
b11100 J
b1011000 W
b1011000 Z
b110 [
b1010111 d
b110 e
b110 g
b1010111 i
#174000
06
0>
#175000
0"
b1111101 -
16
09
1>
b11101 J
0T
b1011001 W
b1011001 Z
b1011000 d
b1111101 f
b1011000 i
#176000
06
0>
#177000
16
1>
b11110 J
b1011010 W
b1011010 Z
b1011001 d
b1011001 i
#178000
06
0>
#179000
16
1>
b11111 J
b1011011 W
b1011011 Z
b1011010 d
b1011010 i
#180000
1$
06
1;
0>
#181000
16
1>
b10 @
b100000 J
b10 L
b0 M
1S
b1011100 W
b1011100 Z
0b
b1011011 d
b1011011 i
#182000
06
0>
#183000
16
1>
b100001 J
b1011101 W
b1011101 Z
b1011100 d
b1011100 i
#184000
06
0>
#185000
0$
16
0;
1>
b100010 J
0S
b1011110 W
b1011110 Z
b1011101 d
b1011101 i
#186000
06
0>
#187000
16
1>
b100011 J
b1011111 W
b1011111 Z
b1011110 d
b1011110 i
#188000
06
0>
#189000
16
1>
b100100 J
b1100000 W
b1100000 Z
b1011111 d
b1011111 i
#190000
1"
06
19
0>
#191000
16
1>
b10110 ?
b100101 J
b1 M
b10110 O
1T
b1100001 W
b1100001 Z
b10110 ]
b1100000 d
b1100000 i
#192000
06
0>
#193000
16
1>
b100110 J
b1100010 W
b1100010 Z
b1100001 d
b1100001 i
#194000
06
0>
#195000
0"
16
09
1>
b100111 J
0T
b1100011 W
b1100011 Z
b1100010 d
b1100010 i
#196000
06
0>
#197000
16
1>
b101000 J
b1100100 W
b1100100 Z
b1100011 d
b1100011 i
#198000
06
0>
#199000
16
1>
b101001 J
b1100101 W
b1100101 Z
b1100100 d
b1100100 i
#200000
1"
06
19
0>
#201000
16
1>
b100110 ?
b101010 J
b10 M
b100110 O
1T
b1100110 W
b1100110 Z
b100110 ]
b1100101 d
b1100101 i
#202000
06
0>
#203000
16
1>
b101011 J
b1100111 W
b1100111 Z
b1100110 d
b1100110 i
#204000
06
0>
#205000
0"
16
09
1>
b101100 J
0T
b1101000 W
b1101000 Z
b1100111 d
b1100111 i
#206000
06
0>
#207000
16
1>
b101101 J
b1101001 W
b1101001 Z
b1101000 d
b1101000 i
#208000
06
0>
#209000
16
1>
b101110 J
b1101010 W
b1101010 Z
b1101001 d
b1101001 i
#210000
1$
06
1;
0>
#211000
16
1>
b11 @
b101111 J
b11 L
b0 M
1S
b1101011 W
b1101011 Z
b1101010 d
b1101010 i
#212000
06
0>
#213000
16
1>
b110000 J
b1101100 W
b1101100 Z
b1101011 d
b1101011 i
#214000
06
0>
#215000
0$
16
0;
1>
b110001 J
0S
b1101101 W
b1101101 Z
b1101100 d
b1101100 i
#216000
06
0>
#217000
16
1>
b110010 J
b1101110 W
b1101110 Z
b1101101 d
b1101101 i
#218000
06
0>
#219000
16
1>
b110011 J
b1101111 W
b1101111 Z
b1101110 d
b1101110 i
#220000
1"
06
19
0>
#221000
16
1>
b100100110 ?
b110100 J
b1 M
b100100110 O
1T
b1110000 W
b1110000 Z
b100100110 ]
b1101111 d
b1101111 i
#222000
06
0>
#223000
16
1>
b110101 J
b1110001 W
b1110001 Z
b1110000 d
b1110000 i
#224000
06
0>
#225000
0"
16
09
1>
b110110 J
0T
b1110010 W
b1110010 Z
b1110001 d
b1110001 i
#226000
06
0>
#227000
16
1>
b110111 J
b1110011 W
b1110011 Z
b1110010 d
b1110010 i
#228000
06
0>
#229000
16
1>
b111000 J
b1110100 W
b1110100 Z
b1110011 d
b1110011 i
#230000
1"
06
19
0>
#231000
16
1>
b1000100110 ?
b111001 J
b10 M
b1000100110 O
1T
b1110101 W
b1110101 Z
b1000100110 ]
b1110100 d
b1110100 i
#232000
06
0>
#233000
16
1>
b111010 J
b1110110 W
b1110110 Z
b1110101 d
b1110101 i
#234000
06
0>
#235000
0"
16
09
1>
b111011 J
0T
b1110111 W
b1110111 Z
b1110110 d
b1110110 i
#236000
06
0>
#237000
16
1>
b111100 J
b1111000 W
b1111000 Z
b1110111 d
b1110111 i
#238000
06
0>
#239000
16
1>
b111101 J
b1111001 W
b1111001 Z
b1111000 d
b1111000 i
#240000
1"
06
19
0>
#241000
16
1>
b1100100110 ?
b111110 J
b11 M
b1100100110 O
1T
b1111010 W
b1111010 Z
b1100100110 ]
b1111001 d
b1111001 i
#242000
06
0>
#243000
16
1>
b111111 J
b1111011 W
b1111011 Z
b1111010 d
b1111010 i
#244000
06
0>
#245000
0"
16
09
1>
b1000000 J
0T
b1111100 W
b1111100 Z
b1111011 d
b1111011 i
#246000
06
0>
#247000
16
1>
b1000001 J
b1111101 W
b1111101 Z
b1111100 d
b1111100 i
#248000
06
0>
#249000
16
1>
b1000010 J
b1111110 W
b1111110 Z
b1111101 d
b1111101 i
#250000
1"
06
19
0>
#251000
16
1>
b10000100110 ?
b1000011 J
b100 M
b10000100110 O
1T
b1111111 W
b1111111 Z
b10000100110 ]
b1111110 d
b1111110 i
#252000
06
0>
#253000
16
1>
b1000100 J
b10000000 W
b10000000 Z
b1111111 d
b1111111 i
#254000
06
0>
#255000
0"
16
09
1>
b1000101 J
0T
b10000001 W
b10000001 Z
b10000000 d
b10000000 i
#256000
06
0>
#257000
16
1>
b1000110 J
b10000010 W
b10000010 Z
b10000001 d
b10000001 i
#258000
06
0>
#259000
16
1>
b1000111 J
b10000011 W
b10000011 Z
b10000010 d
b10000010 i
#260000
1"
06
19
0>
#261000
16
1>
b10100100110 ?
b1001000 J
b101 M
b10100100110 O
1T
b10000100 W
b10000100 Z
b10100100110 ]
b10000011 d
b10000011 i
#262000
06
0>
#263000
16
1>
b1001001 J
b10000101 W
b10000101 Z
b10000100 d
b10000100 i
#264000
06
0>
#265000
0"
16
09
1>
b1001010 J
0T
b10000110 W
b10000110 Z
b10000101 d
b10000101 i
#266000
06
0>
#267000
16
1>
b1001011 J
b10000111 W
b10000111 Z
b10000110 d
b10000110 i
#268000
06
0>
#269000
16
1>
b1001100 J
b10001000 W
b10001000 Z
b10000111 d
b10000111 i
#270000
1"
06
19
0>
#271000
16
1>
b11000100110 ?
b1001101 J
b110 M
b11000100110 O
1T
b10001001 W
b10001001 Z
b11000100110 ]
b10001000 d
b10001000 i
#272000
06
0>
#273000
16
1>
b1001110 J
b10001010 W
b10001010 Z
b10001001 d
b10001001 i
#274000
06
0>
#275000
0"
16
09
1>
b1001111 J
0T
b10001011 W
b10001011 Z
b10001010 d
b10001010 i
#276000
06
0>
#277000
16
1>
b1010000 J
b10001100 W
b10001100 Z
b10001011 d
b10001011 i
#278000
06
0>
#279000
16
1>
b1010001 J
b10001101 W
b10001101 Z
b10001100 d
b10001100 i
#280000
1$
06
1;
0>
#281000
16
1>
b100 @
b1010010 J
b100 L
b0 M
1S
b10001110 W
b10001110 Z
b10001101 d
b10001101 i
#282000
06
0>
#283000
16
1>
b1010011 J
b10001111 W
b10001111 Z
b10001110 d
b10001110 i
#284000
06
0>
#285000
0$
16
0;
1>
b1010100 J
0S
b10010000 W
b10010000 Z
b10001111 d
b10001111 i
#286000
06
0>
#287000
16
1>
b1010101 J
b10010001 W
b10010001 Z
b10010000 d
b10010000 i
#288000
06
0>
#289000
16
1>
b1010110 J
b10010010 W
b10010010 Z
b10010001 d
b10010001 i
#290000
1"
06
19
0>
#291000
16
1>
b1011000100110 ?
b1010111 J
b1 M
b1011000100110 O
1T
b10010011 W
b10010011 Z
b1011000100110 ]
b10010010 d
b10010010 i
#292000
06
0>
#293000
16
1>
b1011000 J
b10010100 W
b10010100 Z
b10010011 d
b10010011 i
#294000
06
0>
#295000
0"
16
09
1>
b1011001 J
0T
b10010101 W
b10010101 Z
b10010100 d
b10010100 i
#296000
06
0>
#297000
16
1>
b1011010 J
b10010110 W
b10010110 Z
b10010101 d
b10010101 i
#298000
06
0>
#299000
16
1>
b1011011 J
b10010111 W
b10010111 Z
b10010110 d
b10010110 i
#300000
1"
06
19
0>
#301000
16
1>
b10011000100110 ?
b1011100 J
b10 M
b10011000100110 O
1T
b10011000 W
b10011000 Z
b10011000100110 ]
b10010111 d
b10010111 i
#302000
06
0>
#303000
16
1>
b1011101 J
b10011001 W
b10011001 Z
b10011000 d
b10011000 i
#304000
06
0>
#305000
0"
16
09
1>
b1011110 J
0T
b10011010 W
b10011010 Z
b10011001 d
b10011001 i
#306000
06
0>
#307000
16
1>
b1011111 J
b10011011 W
b10011011 Z
b10011010 d
b10011010 i
#308000
06
0>
#309000
16
1>
b1100000 J
b10011100 W
b10011100 Z
b10011011 d
b10011011 i
#310000
1"
06
19
0>
#311000
16
1>
b11011000100110 ?
b1100001 J
b11 M
b11011000100110 O
1T
b10011101 W
b10011101 Z
b11011000100110 ]
b10011100 d
b10011100 i
#312000
06
0>
#313000
16
1>
b1100010 J
b10011110 W
b10011110 Z
b10011101 d
b10011101 i
#314000
06
0>
#315000
0"
16
09
1>
b1100011 J
0T
b10011111 W
b10011111 Z
b10011110 d
b10011110 i
#316000
06
0>
#317000
16
1>
b1100100 J
b10100000 W
b10100000 Z
b10011111 d
b10011111 i
#318000
06
0>
#319000
16
1>
b1100101 J
b10100001 W
b10100001 Z
b10100000 d
b10100000 i
#320000
1"
06
19
0>
#321000
16
1>
b100011000100110 ?
b1100110 J
b100 M
b100011000100110 O
1T
b10100010 W
b10100010 Z
b100011000100110 ]
b10100001 d
b10100001 i
#322000
06
0>
#323000
16
1>
b1100111 J
b10100011 W
b10100011 Z
b10100010 d
b10100010 i
#324000
06
0>
#325000
0"
16
09
1>
b1101000 J
0T
b10100100 W
b10100100 Z
b10100011 d
b10100011 i
#326000
06
0>
#327000
16
1>
b1101001 J
b10100101 W
b10100101 Z
b10100100 d
b10100100 i
#328000
06
0>
#329000
16
1>
b1101010 J
b10100110 W
b10100110 Z
b10100101 d
b10100101 i
#330000
1"
06
19
0>
#331000
16
1>
b101011000100110 ?
b1101011 J
b101 M
b101011000100110 O
1T
b10100111 W
b10100111 Z
b101011000100110 ]
b10100110 d
b10100110 i
#332000
06
0>
#333000
16
1>
b1101100 J
b10101000 W
b10101000 Z
b10100111 d
b10100111 i
#334000
06
0>
#335000
0"
16
09
1>
b1101101 J
0T
b10101001 W
b10101001 Z
b10101000 d
b10101000 i
#336000
06
0>
#337000
16
1>
b1101110 J
b10101010 W
b10101010 Z
b10101001 d
b10101001 i
#338000
06
0>
#339000
16
1>
b1101111 J
b10101011 W
b10101011 Z
b10101010 d
b10101010 i
#340000
1"
06
19
0>
#341000
16
1>
b110011000100110 ?
b1110000 J
b110 M
b110011000100110 O
1T
b10101100 W
b10101100 Z
b110011000100110 ]
b10101011 d
b10101011 i
#342000
06
0>
#343000
16
1>
b1110001 J
b10101101 W
b10101101 Z
b10101100 d
b10101100 i
#344000
06
0>
#345000
0"
16
09
1>
b1110010 J
0T
b10101110 W
b10101110 Z
b10101101 d
b10101101 i
#346000
06
0>
#347000
16
1>
b1110011 J
b10101111 W
b10101111 Z
b10101110 d
b10101110 i
#348000
06
0>
#349000
16
1>
b1110100 J
b10110000 W
b10110000 Z
b10101111 d
b10101111 i
#350000
1"
06
19
0>
#351000
16
1>
b111011000100110 ?
b1110101 J
b111 M
b111011000100110 O
1T
b10110001 W
b10110001 Z
b111011000100110 ]
b10110000 d
b10110000 i
#352000
06
0>
#353000
16
1>
b1110110 J
b10110010 W
b10110010 Z
b10110001 d
b10110001 i
#354000
06
0>
#355000
0"
16
09
1>
b1110111 J
0T
b10110011 W
b10110011 Z
b10110010 d
b10110010 i
#356000
06
0>
#357000
16
1>
b1111000 J
b10110100 W
b10110100 Z
b10110011 d
b10110011 i
#358000
06
0>
#359000
16
1>
b1111001 J
b10110101 W
b10110101 Z
b10110100 d
b10110100 i
#360000
1"
06
19
0>
#361000
16
1>
b1000011000100110 ?
b1111010 J
b1000 M
b1000011000100110 O
1T
b10110110 W
b10110110 Z
b1000011000100110 ]
b10110101 d
b10110101 i
#362000
06
0>
#363000
16
1>
b1111011 J
b10110111 W
b10110111 Z
b10110110 d
b10110110 i
#364000
06
0>
#365000
0"
16
09
1>
b1111100 J
0T
b10111000 W
b10111000 Z
b10110111 d
b10110111 i
#366000
06
0>
#367000
16
1>
b1111101 J
b10111001 W
b10111001 Z
b10111000 d
b10111000 i
#368000
06
0>
#369000
16
1>
b1111110 J
b10111010 W
b10111010 Z
b10111001 d
b10111001 i
#370000
1"
06
19
0>
#371000
16
1>
b1001011000100110 ?
b1111111 J
b1001 M
b1001011000100110 O
1T
b10111011 W
b10111011 Z
b1001011000100110 ]
b10111010 d
b10111010 i
#372000
06
0>
#373000
16
1>
b10000000 J
b10111100 W
b10111100 Z
b10111011 d
b10111011 i
#374000
06
0>
#375000
0"
16
09
1>
b10000001 J
0T
b10111101 W
b10111101 Z
b10111100 d
b10111100 i
#376000
06
0>
#377000
16
1>
b10000010 J
b10111110 W
b10111110 Z
b10111101 d
b10111101 i
#378000
06
0>
#379000
16
1>
b10000011 J
b10111111 W
b10111111 Z
b10111110 d
b10111110 i
#380000
1"
06
19
0>
#381000
16
1>
b11000100110 ?
b10000100 J
b0 M
b11000100110 O
1T
b11000000 W
b11000000 Z
b11000100110 ]
b10111111 d
b10111111 i
#382000
06
0>
#383000
16
1>
b10000101 J
b11000001 W
b11000001 Z
b11000000 d
b11000000 i
#384000
06
0>
#385000
0"
16
09
1>
b10000110 J
0T
b11000010 W
b11000010 Z
b11000001 d
b11000001 i
#386000
06
0>
#387000
16
1>
b10000111 J
b11000011 W
b11000011 Z
b11000010 d
b11000010 i
#388000
06
0>
#389000
16
1>
b10001000 J
b11000100 W
b11000100 Z
b11000011 d
b11000011 i
#390000
1"
06
19
0>
#391000
16
1>
b1011000100110 ?
b10001001 J
b1 M
b1011000100110 O
1T
b11000101 W
b11000101 Z
b1011000100110 ]
b11000100 d
b11000100 i
#392000
06
0>
#393000
16
1>
b10001010 J
b11000110 W
b11000110 Z
b11000101 d
b11000101 i
#394000
06
0>
#395000
0"
16
09
1>
b10001011 J
0T
b11000111 W
b11000111 Z
b11000110 d
b11000110 i
#396000
06
0>
#397000
16
1>
b10001100 J
b11001000 W
b11001000 Z
b11000111 d
b11000111 i
#398000
06
0>
#399000
16
1>
b10001101 J
b11001001 W
b11001001 Z
b11001000 d
b11001000 i
#400000
1"
06
19
0>
#401000
16
1>
b10011000100110 ?
b10001110 J
b10 M
b10011000100110 O
1T
b11001010 W
b11001010 Z
b10011000100110 ]
b11001001 d
b11001001 i
#402000
06
0>
